{
	"plugins":{
		"SRD_VeritasTrackerPlugin":"data.scripts.plugins.SRD_VeritasTrackerPlugin",
		"SRD_FakeSmokePlugin":"data.scripts.plugins.SRD_FakeSmokePlugin",
		"SRD_NullspaceMissileTrackerPlugin":"data.scripts.plugins.SRD_NullspaceMissileTrackerPlugin",
		"SRD_ProjectileTrailHandlerPlugin":"data.scripts.plugins.SRD_ProjectileTrailHandlerPlugin",
		"SRD_LensFlarePlugin":"data.scripts.plugins.SRD_LensFlarePlugin",
		"SRD_NanobotsPlugin":"data.scripts.plugins.SRD_NanobotsPlugin",
		#"SRD_MusicPlayerPlugin":"data.scripts.plugins.SRD_MusicPlayerPlugin",
		#"SRD_ProjectileCustomGlowPlugin":"data.scripts.plugins.SRD_ProjectileCustomGlowPlugin",
		},  
	"designTypeColors":{
            "Sylphon RnD":[190,0,255,255],
			"Sylphon Outcast":[255,50,0,255],
    },
	"graphics":{
		"SRD_fx":{
			"SRD_Rakia_phantom":"graphics/sylphon/ships/SRD_Rakia_glow2.png",
			"SRD_Equilibrium_phantom":"graphics/sylphon/ships/SRD_Equilibrium_glow1.png",
			"SRD_Equilibrium_balance_phantom":"graphics/sylphon/ships/SRD_Equilibrium_glow1.png",
			"SRD_Silverhead_phantom":"graphics/sylphon/ships/SRD_Silverhead_glow1.png",
			"SRD_Seresvalla_phantom":"graphics/sylphon/ships/SRD_Seresvalla_glow.png",
			"SRD_Ascordia_phantom":"graphics/sylphon/ships/SRD_Ascordia_glow1.png",
			"SRD_Eagle_phantom":"graphics/sylphon/ships/SRD_Eagle_glow.png",
			"SRD_Eagle_P_phantom":"graphics/sylphon/ships/SRD_Eagle_glow.png",
			"SRD_Skallic_drone_phantom":"graphics/sylphon/ships/fighters/SRD_Skallic_drone_glow.png",
			"SRD_selene_msl_phantom":"graphics/sylphon/fx/SRD_missile_glow.png",
			"SRD_generic_fighter_phantom_0":"graphics/sylphon/fx/SRD_generic_fighter_glow_1.png",
			"SRD_generic_fighter_phantom_1":"graphics/sylphon/fx/SRD_generic_fighter_glow_2.png",
			"SRD_generic_fighter_phantom_2":"graphics/sylphon/fx/SRD_generic_fighter_glow_3.png",
			"seresvalla_pulse":"graphics/sylphon/fx/SRD_seresvalla_pulse.png",
			"seresvalla_wave":"graphics/sylphon/fx/SRD_seresvalla_wave.png",
			"conduit_trails_standard":"graphics/sylphon/fx/SRD_standard_contrail.png",
			"conduit_trails_stabilizer":"graphics/sylphon/fx/SRD_stabilizer_contrail.png",
			"flux_exchanger_strip":"graphics/sylphon/fx/SRD_flux_exchanger_strip.png",
			"projectile_trail_standard":"graphics/sylphon/fx/SRD_projectile_contrail.png",
			"projectile_trail_fuzzy":"graphics/sylphon/fx/SRD_projectile_contrail_fuzzy.png",
			"projectile_trail_helix":"graphics/sylphon/fx/SRD_trail_helix.png",
			"projectile_trail_core":"graphics/sylphon/fx/SRD_largesse_trail_core.png",
			"projectile_trail_fringe":"graphics/sylphon/fx/SRD_largesse_trail_fringe.png",
			"projectile_trail_zappy":"graphics/sylphon/fx/SRD_zappy_trail.png",
			"projectile_trail_glow":"graphics/sylphon/fx/SRD_projectile_glow.png",
			"laser_targeter":"graphics/sylphon/fx/SRD_laser_targeter_sprite.png",
			"lens_flare":"graphics/sylphon/fx/SRD_lens_flare.png",
			"divinity_shot_glow":"graphics/sylphon/missiles/SRD_divinity_shot_glow.png",
			"nanobot_trail":"graphics/sylphon/fx/SRD_nanite_trail.png",
			"nanobot_swarm_circle_low":"graphics/sylphon/fx/SRD_nanite_shroud_base.png",
			"nanobot_swarm_circle_mid":"graphics/sylphon/fx/SRD_nanite_shroud_core.png",
			"nanobot_swarm_circle_top":"graphics/sylphon/fx/SRD_nanite_shroud_top.png",
		},
		"SRD_veritas_shots":{
			"1":"graphics/sylphon/missiles/SRD_adloquium_slug.png",
			"2":"graphics/sylphon/missiles/SRD_adloquium_slug.png",
			"3":"graphics/sylphon/missiles/SRD_adloquium_slug.png",
			"4":"graphics/sylphon/missiles/SRD_adloquium_slug.png",
		},
		"SRD_fake_smoke":{
			"1":"graphics/sylphon/fx/SRD_smoke_1.png",
			"2":"graphics/sylphon/fx/SRD_smoke_2.png",
			"3":"graphics/sylphon/fx/SRD_smoke_3.png",
			"4":"graphics/sylphon/fx/SRD_smoke_4.png",
			"5":"graphics/sylphon/fx/SRD_smoke_5.png",
		},
		"misc":{
			"SRD_nullspace_soother_icon":"graphics/sylphon/icons/hullsys/SRD_nullspace_soother.png",
			"SRD_variable_ammo_icon":"graphics/sylphon/icons/hullsys/SRD_shell_swapping.png",
			"SRD_nullspace_agitator_icon":"graphics/sylphon/icons/hullsys/SRD_nullspace_agitator.png",
			"SRD_nullpoint_shield_icon":"graphics/sylphon/icons/hullsys/SRD_nullpoint_barrier.png",
			"SRD_subprocess_linkup_icon":"graphics/sylphon/icons/hullsys/ai_network.png",
			"SRD_shockcannon_icon":"graphics/sylphon/hullmods/ammo_shockcannon_icon.png",
			"SRD_ammo_impactdriver_icon":"graphics/sylphon/hullmods/ammo_impactdriver_icon.png",
			"SRD_type3_icon":"graphics/sylphon/hullmods/ammo_type3_icon.png",
		},
		"blueprint_packages":{
			"sylphon_core_package":"graphics/sylphon/icons/cargo/package_sylphon.png",
			"sylphon_high_package":"graphics/sylphon/icons/cargo/package_sylphon.png",
			"sylphon_ex_package":"graphics/sylphon/icons/cargo/package_sylphon.png",
			"sylphon_outcast_package":"graphics/sylphon/icons/cargo/package_outcast.png",
		},
	}
}