name,id,tags,rarity,base price,stack size,cargo space,icon,sound id,sound id drop,plugin,plugin params,desc,order
Sylphon Common Tech Blueprint Package,sylphon_core_package,package_bp,,30000,1000,1,graphics/icons/cargo/blueprint_hightech.png,ui_chip_pickup,ui_bp_package_drop,com.fs.starfarer.api.campaign.impl.items.MultiBlueprintItemPlugin,sylphon_core_bp,"Enables heavy industry to construct the more common ship hulls, weapons, and fighter LPCs from the ""Sylphon Common Tech"" school of design.",210
Sylphon Advanced Tech Blueprint Package,sylphon_high_package,package_bp,0.6,60000,1000,1,graphics/icons/cargo/blueprint_hightech.png,ui_chip_pickup,ui_bp_package_drop,com.fs.starfarer.api.campaign.impl.items.MultiBlueprintItemPlugin,sylphon_high_bp,"Enables heavy industry to construct the more common ship hulls, weapons, and fighter LPCs from the ""Sylphon Advanced Tech"" school of design.",220
Sylphon Outcast Tech Blueprint Package,sylphon_outcast_package,package_bp,0.03,1000000,1000,1,graphics/icons/cargo/blueprint_basic.png,ui_chip_pickup,ui_bp_package_drop,com.fs.starfarer.api.campaign.impl.items.MultiBlueprintItemPlugin,sylphon_outcast_bp,"Enables heavy industry to construct the more common ship hulls, weapons, and fighter LPCs from the ""Sylphon Outcast Tech"" school of design.",220